%YAML 1.1
%TAG !u! tag:unity3d.com,2011:
--- !u!114 &11400000
MonoBehaviour:
  m_ObjectHideFlags: 0
  m_CorrespondingSourceObject: {fileID: 0}
  m_PrefabInternal: {fileID: 0}
  m_GameObject: {fileID: 0}
  m_Enabled: 1
  m_EditorHideFlags: 0
  m_Script: {fileID: 11500000, guid: 5d0199c11aa6f514784c5c69cd8378d8, type: 3}
  m_Name: PlayFabEditorPrefsSO
  m_EditorClassIdentifier: 
  DevAccountEmail: Alleria.ak@gmail.com
  DevAccountToken: 1euezdsohj5jtzuna3boyrg1rdd9mrm9qckworh6cwi6dn1mkpbpd5sb738uxyjsuwcethpd458xjp6dy781wizt6sd8ur5s85axy59umcowgfd5tz4kdt3yktaawhhtgcnwphbuy8nnxippkbjbtwrsez6jni8fszs39dk4emp56gbuazq5d5np57tpi7nrizznearh
  SelectedStudio: MyBilliars
  SdkPath: Assets/PlayFabSdk
  EdExPath: 
  LocalCloudScriptPath: 
  PanelIsShown: 0
  curMainMenuIdx: 1
  curSubMenuIdx: 0
